   [
        {
            "device_id" : "D-1567",
            "device_type" : "Aircraft",
            "timestamp" : "2022-08-31T03:05:00.000Z",
            "location" : "L1"
        },
        {
            "device_id" : "D-1567",
            "device_type" : "Aircraft",
            "timestamp" : "2022-08-31T03:10:00.000Z",
            "location" : "L1"
        },
        {
            "device_id" : "D-1567",
            "device_type" : "Aircraft",
            "timestamp" : "2022-08-31T03:15:00.000Z",
            "location" : "L1"
        },
        {
            "device_id" : "D-1567",
            "device_type" : "Aircraft",
            "timestamp" : "2022-08-31T03:20:00.000Z",
            "location" : "L1"
        },
        {
            "device_id" : "D-1567",
            "device_type" : "Aircraft",
            "timestamp" : "2022-08-31T03:25:00.000Z",
            "location" : "L2"
        },
        {
            "device_id" : "D-1568",
            "device_type" : "Personal",
            "timestamp" : "2022-08-31T03:05:00.000Z",
            "location" : "L3"
        },
        {
            "device_id" : "D-1568",
            "device_type" : "Personal",
            "timestamp" : "2022-08-31T03:10:00.000Z",
            "location" : "L3"
        },
        {
            "device_id" : "D-1568",
            "device_type" : "Personal",
            "timestamp" : "2022-08-31T03:15:00.000Z",
            "location" : "L3"
        },
        {
            "device_id" : "D-1568",
            "device_type" : "Personal",
            "timestamp" : "2022-08-31T03:20:00.000Z",
            "location" : "L3"
        },
        {
            "device_id" : "D-1568",
            "device_type" : "Personal",
            "timestamp" : "2022-08-31T03:25:00.000Z",
            "location" : "L3"
        },
        {
            "device_id" : "D-1569",
            "device_type" : "Asset",
            "timestamp" : "2022-08-31T03:15:00.000Z",
            "location" : "L4"
        },
        {
            "device_id" : "D-1569",
            "device_type" : "Asset",
            "timestamp" : "2022-08-31T03:20:00.000Z",
            "location" : "L4"
        },
        {
            "device_id" : "D-1569",
            "device_type" : "Asset",
            "timestamp" : "2022-08-31T03:25:00.000Z",
            "location" : "L1"
        },
        {
            "device_id" : "D-1569",
            "device_type" : "Asset",
            "timestamp" : "2022-08-31T03:30:00.000Z",
            "location" : "L1"
        },
        {
            "device_id" : "D-1569",
            "device_type" : "Asset",
            "timestamp" : "2022-08-31T03:35:00.000Z",
            "location" : "L2"
        },
        {
            "device_id" : "D-1570",
            "device_type" : "Personal",
            "timestamp" : "2022-08-31T03:35:00.000Z",
            "location" : "L5"
        },
        {
            "device_id" : "D-1571",
            "device_type" : "Asset",
            "timestamp" : "2022-08-31T03:35:00.000Z",
            "location" : "L6"
        }
]
    